Search in range 30:40 = [(29, 31)] in machinems-Latitude-E6440
Search in range 70:80 = [(71, 73)] in machinems-Latitude-E6440
Search in range 90:100 = [] in machinems-Latitude-E6440
Search in range 10:20 = [(11, 13), (17, 19)] in machinems-Latitude-E6440
Search in range 50:60 = [] in machinems-Latitude-E6440
Search in range 40:50 = [(41, 43)] in machinems-Latitude-E6440
Search in range 20:30 = [] in machinems-Latitude-E6440
Search in range 60:70 = [(59, 61)] in machinems-Latitude-E6440
Search in range 0:10 = [(3, 5), (5, 7)] in machinems-Latitude-E6440
Search in range 80:90 = [] in machinems-Latitude-E6440
Time process: 0.02035355567932129
